%YAML 1.1
%TAG !u! tag:unity3d.com,2011:
--- !u!29 &1
OcclusionCullingSettings:
  m_ObjectHideFlags: 0
  serializedVersion: 2
  m_OcclusionBakeSettings:
    smallestOccluder: 5
    smallestHole: 0.25
    backfaceThreshold: 100
  m_SceneGUID: 00000000000000000000000000000000
  m_OcclusionCullingData: {fileID: 0}
--- !u!104 &2
RenderSettings:
  m_ObjectHideFlags: 0
  serializedVersion: 9
  m_Fog: 0
  m_FogColor: {r: 0.5, g: 0.5, b: 0.5, a: 1}
  m_FogMode: 3
  m_FogDensity: 0.01
  m_LinearFogStart: 0
  m_LinearFogEnd: 300
  m_AmbientSkyColor: {r: 0.212, g: 0.227, b: 0.259, a: 1}
  m_AmbientEquatorColor: {r: 0.114, g: 0.125, b: 0.133, a: 1}
  m_AmbientGroundColor: {r: 0.047, g: 0.043, b: 0.035, a: 1}
  m_AmbientIntensity: 1
  m_AmbientMode: 0
  m_SubtractiveShadowColor: {r: 0.42, g: 0.478, b: 0.627, a: 1}
  m_SkyboxMaterial: {fileID: 10304, guid: 0000000000000000f000000000000000, type: 0}
  m_HaloStrength: 0.5
  m_FlareStrength: 1
  m_FlareFadeSpeed: 3
  m_HaloTexture: {fileID: 0}
  m_SpotCookie: {fileID: 10001, guid: 0000000000000000e000000000000000, type: 0}
  m_DefaultReflectionMode: 0
  m_DefaultReflectionResolution: 128
  m_ReflectionBounces: 1
  m_ReflectionIntensity: 1
  m_CustomReflection: {fileID: 0}
  m_Sun: {fileID: 0}
  m_IndirectSpecularColor: {r: 0, g: 0, b: 0, a: 1}
  m_UseRadianceAmbientProbe: 0
--- !u!157 &3
LightmapSettings:
  m_ObjectHideFlags: 0
  serializedVersion: 11
  m_GIWorkflowMode: 1
  m_GISettings:
    serializedVersion: 2
    m_BounceScale: 1
    m_IndirectOutputScale: 1
    m_AlbedoBoost: 1
    m_EnvironmentLightingMode: 0
    m_EnableBakedLightmaps: 1
    m_EnableRealtimeLightmaps: 1
  m_LightmapEditorSettings:
    serializedVersion: 12
    m_Resolution: 2
    m_BakeResolution: 40
    m_AtlasSize: 1024
    m_AO: 0
    m_AOMaxDistance: 1
    m_CompAOExponent: 1
    m_CompAOExponentDirect: 0
    m_ExtractAmbientOcclusion: 0
    m_Padding: 2
    m_LightmapParameters: {fileID: 0}
    m_LightmapsBakeMode: 1
    m_TextureCompression: 1
    m_FinalGather: 0
    m_FinalGatherFiltering: 1
    m_FinalGatherRayCount: 256
    m_ReflectionCompression: 2
    m_MixedBakeMode: 2
    m_BakeBackend: 1
    m_PVRSampling: 1
    m_PVRDirectSampleCount: 32
    m_PVRSampleCount: 512
    m_PVRBounces: 2
    m_PVREnvironmentSampleCount: 256
    m_PVREnvironmentReferencePointCount: 2048
    m_PVRFilteringMode: 1
    m_PVRDenoiserTypeDirect: 1
    m_PVRDenoiserTypeIndirect: 1
    m_PVRDenoiserTypeAO: 1
    m_PVRFilterTypeDirect: 0
    m_PVRFilterTypeIndirect: 0
    m_PVRFilterTypeAO: 0
    m_PVREnvironmentMIS: 1
    m_PVRCulling: 1
    m_PVRFilteringGaussRadiusDirect: 1
    m_PVRFilteringGaussRadiusIndirect: 5
    m_PVRFilteringGaussRadiusAO: 2
    m_PVRFilteringAtrousPositionSigmaDirect: 0.5
    m_PVRFilteringAtrousPositionSigmaIndirect: 2
    m_PVRFilteringAtrousPositionSigmaAO: 1
    m_ExportTrainingData: 0
    m_TrainingDataDestination: TrainingData
  m_LightingDataAsset: {fileID: 0}
  m_UseShadowmask: 1
--- !u!196 &4
NavMeshSettings:
  serializedVersion: 2
  m_ObjectHideFlags: 0
  m_BuildSettings:
    serializedVersion: 2
    agentTypeID: 0
    agentRadius: 0.5
    agentHeight: 2
    agentSlope: 45
    agentClimb: 0.4
    ledgeDropHeight: 0
    maxJumpAcrossDistance: 0
    minRegionArea: 2
    manualCellSize: 0
    cellSize: 0.16666667
    manualTileSize: 0
    tileSize: 256
    accuratePlacement: 0
    debug:
      m_Flags: 0
  m_NavMeshData: {fileID: 0}
--- !u!1 &328264518
GameObject:
  m_ObjectHideFlags: 0
  m_CorrespondingSourceObject: {fileID: 0}
  m_PrefabInstance: {fileID: 0}
  m_PrefabAsset: {fileID: 0}
  serializedVersion: 6
  m_Component:
  - component: {fileID: 328264523}
  - component: {fileID: 328264522}
  - component: {fileID: 328264521}
  - component: {fileID: 328264520}
  - component: {fileID: 328264519}
  m_Layer: 0
  m_Name: seqPos
  m_TagString: Untagged
  m_Icon: {fileID: 0}
  m_NavMeshLayer: 0
  m_StaticEditorFlags: 0
  m_IsActive: 1
--- !u!114 &328264519
MonoBehaviour:
  m_ObjectHideFlags: 0
  m_CorrespondingSourceObject: {fileID: 0}
  m_PrefabInstance: {fileID: 0}
  m_PrefabAsset: {fileID: 0}
  m_GameObject: {fileID: 328264518}
  m_Enabled: 1
  m_EditorHideFlags: 0
  m_Script: {fileID: 11500000, guid: 2e4ac08bddb3a4fe0a6f7643bc2683f9, type: 3}
  m_Name: 
  m_EditorClassIdentifier: 
  Seq: {fileID: 1794988318}
  StepInfo: {fileID: 0}
  Pos: 0
  PosWrapped: 0
--- !u!65 &328264520
BoxCollider:
  m_ObjectHideFlags: 0
  m_CorrespondingSourceObject: {fileID: 0}
  m_PrefabInstance: {fileID: 0}
  m_PrefabAsset: {fileID: 0}
  m_GameObject: {fileID: 328264518}
  m_Material: {fileID: 0}
  m_IsTrigger: 0
  m_Enabled: 1
  serializedVersion: 2
  m_Size: {x: 1, y: 1, z: 1}
  m_Center: {x: 0, y: 0, z: 0}
--- !u!23 &328264521
MeshRenderer:
  m_ObjectHideFlags: 0
  m_CorrespondingSourceObject: {fileID: 0}
  m_PrefabInstance: {fileID: 0}
  m_PrefabAsset: {fileID: 0}
  m_GameObject: {fileID: 328264518}
  m_Enabled: 1
  m_CastShadows: 1
  m_ReceiveShadows: 1
  m_DynamicOccludee: 1
  m_MotionVectors: 1
  m_LightProbeUsage: 1
  m_ReflectionProbeUsage: 1
  m_RenderingLayerMask: 1
  m_RendererPriority: 0
  m_Materials:
  - {fileID: 10303, guid: 0000000000000000f000000000000000, type: 0}
  m_StaticBatchInfo:
    firstSubMesh: 0
    subMeshCount: 0
  m_StaticBatchRoot: {fileID: 0}
  m_ProbeAnchor: {fileID: 0}
  m_LightProbeVolumeOverride: {fileID: 0}
  m_ScaleInLightmap: 1
  m_ReceiveGI: 1
  m_PreserveUVs: 0
  m_IgnoreNormalsForChartDetection: 0
  m_ImportantGI: 0
  m_StitchLightmapSeams: 1
  m_SelectedEditorRenderState: 3
  m_MinimumChartSize: 4
  m_AutoUVMaxDistance: 0.5
  m_AutoUVMaxAngle: 89
  m_LightmapParameters: {fileID: 0}
  m_SortingLayerID: 0
  m_SortingLayer: 0
  m_SortingOrder: 0
--- !u!33 &328264522
MeshFilter:
  m_ObjectHideFlags: 0
  m_CorrespondingSourceObject: {fileID: 0}
  m_PrefabInstance: {fileID: 0}
  m_PrefabAsset: {fileID: 0}
  m_GameObject: {fileID: 328264518}
  m_Mesh: {fileID: 10202, guid: 0000000000000000e000000000000000, type: 0}
--- !u!4 &328264523
Transform:
  m_ObjectHideFlags: 0
  m_CorrespondingSourceObject: {fileID: 0}
  m_PrefabInstance: {fileID: 0}
  m_PrefabAsset: {fileID: 0}
  m_GameObject: {fileID: 328264518}
  m_LocalRotation: {x: -0, y: -0, z: -0, w: 1}
  m_LocalPosition: {x: 0, y: 1, z: 0}
  m_LocalScale: {x: 0.2, y: 0.2, z: 0.2}
  m_Children: []
  m_Father: {fileID: 856043801}
  m_RootOrder: 0
  m_LocalEulerAnglesHint: {x: 0, y: 0, z: 0}
--- !u!1 &856043799
GameObject:
  m_ObjectHideFlags: 0
  m_CorrespondingSourceObject: {fileID: 0}
  m_PrefabInstance: {fileID: 0}
  m_PrefabAsset: {fileID: 0}
  serializedVersion: 6
  m_Component:
  - component: {fileID: 856043801}
  - component: {fileID: 856043800}
  - component: {fileID: 856043802}
  m_Layer: 0
  m_Name: stepParent
  m_TagString: Untagged
  m_Icon: {fileID: 0}
  m_NavMeshLayer: 0
  m_StaticEditorFlags: 0
  m_IsActive: 1
--- !u!114 &856043800
MonoBehaviour:
  m_ObjectHideFlags: 0
  m_CorrespondingSourceObject: {fileID: 0}
  m_PrefabInstance: {fileID: 0}
  m_PrefabAsset: {fileID: 0}
  m_GameObject: {fileID: 856043799}
  m_Enabled: 1
  m_EditorHideFlags: 0
  m_Script: {fileID: 11500000, guid: fb452dc24127c4e16a03e03672097a10, type: 3}
  m_Name: 
  m_EditorClassIdentifier: 
  amountOfSteps: 16
  noteRowAmount: 4
  _gridResolution: 2
  gridResoFactor: 0
  xSpacing: 0.5
  ySpacing: 0.5
  buttonScale: 0.5
  child: {fileID: 5009142755302479923, guid: fdf0f56768bdc4f9b8ae1cb3c9606863, type: 3}
  noteRowParent: {fileID: 8393695423066253544, guid: 803e1d128d61745d4b5f4a5f33a403cf,
    type: 3}
  NoteChoices: 3c0000003d0000004400000045000000
--- !u!4 &856043801
Transform:
  m_ObjectHideFlags: 0
  m_CorrespondingSourceObject: {fileID: 0}
  m_PrefabInstance: {fileID: 0}
  m_PrefabAsset: {fileID: 0}
  m_GameObject: {fileID: 856043799}
  m_LocalRotation: {x: -0, y: -0, z: -0, w: 1}
  m_LocalPosition: {x: -248.43216, y: -153.20592, z: 0}
  m_LocalScale: {x: 2, y: 2, z: 2}
  m_Children:
  - {fileID: 328264523}
  m_Father: {fileID: 1794988319}
  m_RootOrder: 0
  m_LocalEulerAnglesHint: {x: 0, y: 0, z: 0}
--- !u!114 &856043802
MonoBehaviour:
  m_ObjectHideFlags: 0
  m_CorrespondingSourceObject: {fileID: 0}
  m_PrefabInstance: {fileID: 0}
  m_PrefabAsset: {fileID: 0}
  m_GameObject: {fileID: 856043799}
  m_Enabled: 1
  m_EditorHideFlags: 0
  m_Script: {fileID: 11500000, guid: a46f1b44cac214e3c9d74fd1326c474f, type: 3}
  m_Name: 
  m_EditorClassIdentifier: 
--- !u!1 &1175403232
GameObject:
  m_ObjectHideFlags: 0
  m_CorrespondingSourceObject: {fileID: 0}
  m_PrefabInstance: {fileID: 0}
  m_PrefabAsset: {fileID: 0}
  serializedVersion: 6
  m_Component:
  - component: {fileID: 1175403234}
  - component: {fileID: 1175403233}
  m_Layer: 0
  m_Name: Directional Light
  m_TagString: Untagged
  m_Icon: {fileID: 0}
  m_NavMeshLayer: 0
  m_StaticEditorFlags: 0
  m_IsActive: 1
--- !u!108 &1175403233
Light:
  m_ObjectHideFlags: 0
  m_CorrespondingSourceObject: {fileID: 0}
  m_PrefabInstance: {fileID: 0}
  m_PrefabAsset: {fileID: 0}
  m_GameObject: {fileID: 1175403232}
  m_Enabled: 1
  serializedVersion: 9
  m_Type: 1
  m_Color: {r: 1, g: 0.95686275, b: 0.8392157, a: 1}
  m_Intensity: 0.99
  m_Range: 10
  m_SpotAngle: 30
  m_InnerSpotAngle: 21.80208
  m_CookieSize: 10
  m_Shadows:
    m_Type: 2
    m_Resolution: -1
    m_CustomResolution: -1
    m_Strength: 1
    m_Bias: 0.05
    m_NormalBias: 0.4
    m_NearPlane: 0.2
    m_CullingMatrixOverride:
      e00: 1
      e01: 0
      e02: 0
      e03: 0
      e10: 0
      e11: 1
      e12: 0
      e13: 0
      e20: 0
      e21: 0
      e22: 1
      e23: 0
      e30: 0
      e31: 0
      e32: 0
      e33: 1
    m_UseCullingMatrixOverride: 0
  m_Cookie: {fileID: 0}
  m_DrawHalo: 0
  m_Flare: {fileID: 0}
  m_RenderMode: 0
  m_CullingMask:
    serializedVersion: 2
    m_Bits: 4294967295
  m_RenderingLayerMask: 1
  m_Lightmapping: 4
  m_LightShadowCasterMode: 0
  m_AreaSize: {x: 1, y: 1}
  m_BounceIntensity: 1
  m_ColorTemperature: 6570
  m_UseColorTemperature: 0
  m_BoundingSphereOverride: {x: 0, y: 0, z: 0, w: 0}
  m_UseBoundingSphereOverride: 0
  m_ShadowRadius: 0
  m_ShadowAngle: 0
--- !u!4 &1175403234
Transform:
  m_ObjectHideFlags: 0
  m_CorrespondingSourceObject: {fileID: 0}
  m_PrefabInstance: {fileID: 0}
  m_PrefabAsset: {fileID: 0}
  m_GameObject: {fileID: 1175403232}
  m_LocalRotation: {x: 0.40821788, y: -0.23456968, z: 0.10938163, w: 0.8754261}
  m_LocalPosition: {x: -21.82, y: -22.55, z: -20.6}
  m_LocalScale: {x: 1, y: 1, z: 1}
  m_Children: []
  m_Father: {fileID: 0}
  m_RootOrder: 1
  m_LocalEulerAnglesHint: {x: 50, y: -30, z: 0}
--- !u!1001 &1794988317
PrefabInstance:
  m_ObjectHideFlags: 0
  serializedVersion: 2
  m_Modification:
    m_TransformParent: {fileID: 0}
    m_Modifications:
    - target: {fileID: 4000012309939166, guid: e8c2ddbd2999544428e9799ccc8951ab, type: 3}
      propertyPath: m_LocalPosition.x
      value: 124.21608
      objectReference: {fileID: 0}
    - target: {fileID: 4000012309939166, guid: e8c2ddbd2999544428e9799ccc8951ab, type: 3}
      propertyPath: m_LocalPosition.y
      value: 76.60296
      objectReference: {fileID: 0}
    - target: {fileID: 4000012309939166, guid: e8c2ddbd2999544428e9799ccc8951ab, type: 3}
      propertyPath: m_LocalPosition.z
      value: 0
      objectReference: {fileID: 0}
    - target: {fileID: 4000012309939166, guid: e8c2ddbd2999544428e9799ccc8951ab, type: 3}
      propertyPath: m_LocalRotation.x
      value: -0
      objectReference: {fileID: 0}
    - target: {fileID: 4000012309939166, guid: e8c2ddbd2999544428e9799ccc8951ab, type: 3}
      propertyPath: m_LocalRotation.y
      value: -0
      objectReference: {fileID: 0}
    - target: {fileID: 4000012309939166, guid: e8c2ddbd2999544428e9799ccc8951ab, type: 3}
      propertyPath: m_LocalRotation.z
      value: -0
      objectReference: {fileID: 0}
    - target: {fileID: 4000012309939166, guid: e8c2ddbd2999544428e9799ccc8951ab, type: 3}
      propertyPath: m_LocalRotation.w
      value: 1
      objectReference: {fileID: 0}
    - target: {fileID: 4000012309939166, guid: e8c2ddbd2999544428e9799ccc8951ab, type: 3}
      propertyPath: m_RootOrder
      value: 2
      objectReference: {fileID: 0}
    - target: {fileID: 4000012309939166, guid: e8c2ddbd2999544428e9799ccc8951ab, type: 3}
      propertyPath: m_LocalEulerAnglesHint.x
      value: 0
      objectReference: {fileID: 0}
    - target: {fileID: 4000012309939166, guid: e8c2ddbd2999544428e9799ccc8951ab, type: 3}
      propertyPath: m_LocalEulerAnglesHint.y
      value: 0
      objectReference: {fileID: 0}
    - target: {fileID: 4000012309939166, guid: e8c2ddbd2999544428e9799ccc8951ab, type: 3}
      propertyPath: m_LocalEulerAnglesHint.z
      value: 0
      objectReference: {fileID: 0}
    - target: {fileID: 4000012309939166, guid: e8c2ddbd2999544428e9799ccc8951ab, type: 3}
      propertyPath: m_LocalScale.x
      value: 0.5
      objectReference: {fileID: 0}
    - target: {fileID: 4000012309939166, guid: e8c2ddbd2999544428e9799ccc8951ab, type: 3}
      propertyPath: m_LocalScale.y
      value: 0.5
      objectReference: {fileID: 0}
    - target: {fileID: 4000012309939166, guid: e8c2ddbd2999544428e9799ccc8951ab, type: 3}
      propertyPath: m_LocalScale.z
      value: 0.5
      objectReference: {fileID: 0}
    - target: {fileID: 114000012052126696, guid: e8c2ddbd2999544428e9799ccc8951ab,
        type: 3}
      propertyPath: allNotes.Array.data[68].notes.Array.size
      value: 0
      objectReference: {fileID: 0}
    - target: {fileID: 114000012052126696, guid: e8c2ddbd2999544428e9799ccc8951ab,
        type: 3}
      propertyPath: allNotes.Array.data[60].notes.Array.size
      value: 0
      objectReference: {fileID: 0}
    - target: {fileID: 114000012052126696, guid: e8c2ddbd2999544428e9799ccc8951ab,
        type: 3}
      propertyPath: allNotes.Array.data[64].notes.Array.size
      value: 0
      objectReference: {fileID: 0}
    - target: {fileID: 114000012052126696, guid: e8c2ddbd2999544428e9799ccc8951ab,
        type: 3}
      propertyPath: allNotes.Array.data[65].notes.Array.size
      value: 0
      objectReference: {fileID: 0}
    - target: {fileID: 114000012052126696, guid: e8c2ddbd2999544428e9799ccc8951ab,
        type: 3}
      propertyPath: noteOnEvent.m_PersistentCalls.m_Calls.Array.size
      value: 0
      objectReference: {fileID: 0}
    - target: {fileID: 114000012052126696, guid: e8c2ddbd2999544428e9799ccc8951ab,
        type: 3}
      propertyPath: allNotes.Array.data[61].notes.Array.size
      value: 0
      objectReference: {fileID: 0}
    - target: {fileID: 114000012052126696, guid: e8c2ddbd2999544428e9799ccc8951ab,
        type: 3}
      propertyPath: beatEvent.m_PersistentCalls.m_Calls.Array.size
      value: 0
      objectReference: {fileID: 0}
    - target: {fileID: 114000012052126696, guid: e8c2ddbd2999544428e9799ccc8951ab,
        type: 3}
      propertyPath: allNotes.Array.data[68].notes.Array.data[0].note_
      value: 68
      objectReference: {fileID: 0}
    - target: {fileID: 114000012052126696, guid: e8c2ddbd2999544428e9799ccc8951ab,
        type: 3}
      propertyPath: allNotes.Array.data[68].notes.Array.data[0].end_
      value: 1
      objectReference: {fileID: 0}
    - target: {fileID: 114000012052126696, guid: e8c2ddbd2999544428e9799ccc8951ab,
        type: 3}
      propertyPath: allNotes.Array.data[68].notes.Array.data[0].velocity_
      value: 0.8
      objectReference: {fileID: 0}
    - target: {fileID: 114000012052126696, guid: e8c2ddbd2999544428e9799ccc8951ab,
        type: 3}
      propertyPath: allNotes.Array.data[68].notes.Array.data[0].parent
      value: 
      objectReference: {fileID: 1794988318}
    - target: {fileID: 114000012052126696, guid: e8c2ddbd2999544428e9799ccc8951ab,
        type: 3}
      propertyPath: allNotes.Array.data[60].notes.Array.data[0].note_
      value: 60
      objectReference: {fileID: 0}
    - target: {fileID: 114000012052126696, guid: e8c2ddbd2999544428e9799ccc8951ab,
        type: 3}
      propertyPath: allNotes.Array.data[60].notes.Array.data[0].end_
      value: 6
      objectReference: {fileID: 0}
    - target: {fileID: 114000012052126696, guid: e8c2ddbd2999544428e9799ccc8951ab,
        type: 3}
      propertyPath: allNotes.Array.data[60].notes.Array.data[0].velocity_
      value: 0.8
      objectReference: {fileID: 0}
    - target: {fileID: 114000012052126696, guid: e8c2ddbd2999544428e9799ccc8951ab,
        type: 3}
      propertyPath: allNotes.Array.data[60].notes.Array.data[0].parent
      value: 
      objectReference: {fileID: 1794988318}
    - target: {fileID: 114000012052126696, guid: e8c2ddbd2999544428e9799ccc8951ab,
        type: 3}
      propertyPath: allNotes.Array.data[60].notes.Array.data[1].note_
      value: 60
      objectReference: {fileID: 0}
    - target: {fileID: 114000012052126696, guid: e8c2ddbd2999544428e9799ccc8951ab,
        type: 3}
      propertyPath: allNotes.Array.data[60].notes.Array.data[1].start_
      value: 8
      objectReference: {fileID: 0}
    - target: {fileID: 114000012052126696, guid: e8c2ddbd2999544428e9799ccc8951ab,
        type: 3}
      propertyPath: allNotes.Array.data[60].notes.Array.data[1].end_
      value: 10
      objectReference: {fileID: 0}
    - target: {fileID: 114000012052126696, guid: e8c2ddbd2999544428e9799ccc8951ab,
        type: 3}
      propertyPath: allNotes.Array.data[60].notes.Array.data[1].velocity_
      value: 0.8
      objectReference: {fileID: 0}
    - target: {fileID: 114000012052126696, guid: e8c2ddbd2999544428e9799ccc8951ab,
        type: 3}
      propertyPath: allNotes.Array.data[60].notes.Array.data[1].parent
      value: 
      objectReference: {fileID: 1794988318}
    - target: {fileID: 114000012052126696, guid: e8c2ddbd2999544428e9799ccc8951ab,
        type: 3}
      propertyPath: allNotes.Array.data[60].notes.Array.data[0].start_
      value: 4
      objectReference: {fileID: 0}
    - target: {fileID: 114000012052126696, guid: e8c2ddbd2999544428e9799ccc8951ab,
        type: 3}
      propertyPath: length
      value: 16
      objectReference: {fileID: 0}
    - target: {fileID: 114000012052126696, guid: e8c2ddbd2999544428e9799ccc8951ab,
        type: 3}
      propertyPath: zoom
      value: 0.057
      objectReference: {fileID: 0}
    - target: {fileID: 114000012052126696, guid: e8c2ddbd2999544428e9799ccc8951ab,
        type: 3}
      propertyPath: division
      value: 1
      objectReference: {fileID: 0}
    - target: {fileID: 114000012052126696, guid: e8c2ddbd2999544428e9799ccc8951ab,
        type: 3}
      propertyPath: allNotes.Array.data[64].notes.Array.data[0].note_
      value: 64
      objectReference: {fileID: 0}
    - target: {fileID: 114000012052126696, guid: e8c2ddbd2999544428e9799ccc8951ab,
        type: 3}
      propertyPath: allNotes.Array.data[64].notes.Array.data[0].end_
      value: 2
      objectReference: {fileID: 0}
    - target: {fileID: 114000012052126696, guid: e8c2ddbd2999544428e9799ccc8951ab,
        type: 3}
      propertyPath: allNotes.Array.data[64].notes.Array.data[0].velocity_
      value: 0.8
      objectReference: {fileID: 0}
    - target: {fileID: 114000012052126696, guid: e8c2ddbd2999544428e9799ccc8951ab,
        type: 3}
      propertyPath: allNotes.Array.data[64].notes.Array.data[0].parent
      value: 
      objectReference: {fileID: 1794988318}
    - target: {fileID: 114000012052126696, guid: e8c2ddbd2999544428e9799ccc8951ab,
        type: 3}
      propertyPath: allNotes.Array.data[65].notes.Array.data[0].note_
      value: 65
      objectReference: {fileID: 0}
    - target: {fileID: 114000012052126696, guid: e8c2ddbd2999544428e9799ccc8951ab,
        type: 3}
      propertyPath: allNotes.Array.data[65].notes.Array.data[0].start_
      value: 2
      objectReference: {fileID: 0}
    - target: {fileID: 114000012052126696, guid: e8c2ddbd2999544428e9799ccc8951ab,
        type: 3}
      propertyPath: allNotes.Array.data[65].notes.Array.data[0].end_
      value: 4
      objectReference: {fileID: 0}
    - target: {fileID: 114000012052126696, guid: e8c2ddbd2999544428e9799ccc8951ab,
        type: 3}
      propertyPath: allNotes.Array.data[65].notes.Array.data[0].velocity_
      value: 0.8
      objectReference: {fileID: 0}
    - target: {fileID: 114000012052126696, guid: e8c2ddbd2999544428e9799ccc8951ab,
        type: 3}
      propertyPath: allNotes.Array.data[65].notes.Array.data[0].parent
      value: 
      objectReference: {fileID: 1794988318}
    - target: {fileID: 114000012052126696, guid: e8c2ddbd2999544428e9799ccc8951ab,
        type: 3}
      propertyPath: noteOnEvent.m_PersistentCalls.m_Calls.Array.data[0].m_Mode
      value: 6
      objectReference: {fileID: 0}
    - target: {fileID: 114000012052126696, guid: e8c2ddbd2999544428e9799ccc8951ab,
        type: 3}
      propertyPath: noteOnEvent.m_PersistentCalls.m_Calls.Array.data[0].m_CallState
      value: 2
      objectReference: {fileID: 0}
    - target: {fileID: 114000012052126696, guid: e8c2ddbd2999544428e9799ccc8951ab,
        type: 3}
      propertyPath: noteOnEvent.m_PersistentCalls.m_Calls.Array.data[0].m_Target
      value: 
      objectReference: {fileID: -927199367670048503, guid: 5f73714262d7c4e43ac4a8b63498a75a,
        type: 3}
    - target: {fileID: 114000012052126696, guid: e8c2ddbd2999544428e9799ccc8951ab,
        type: 3}
      propertyPath: allNotes.Array.data[60].notes.Array.data[2].note_
      value: 60
      objectReference: {fileID: 0}
    - target: {fileID: 114000012052126696, guid: e8c2ddbd2999544428e9799ccc8951ab,
        type: 3}
      propertyPath: allNotes.Array.data[60].notes.Array.data[2].start_
      value: 12
      objectReference: {fileID: 0}
    - target: {fileID: 114000012052126696, guid: e8c2ddbd2999544428e9799ccc8951ab,
        type: 3}
      propertyPath: allNotes.Array.data[60].notes.Array.data[2].end_
      value: 14
      objectReference: {fileID: 0}
    - target: {fileID: 114000012052126696, guid: e8c2ddbd2999544428e9799ccc8951ab,
        type: 3}
      propertyPath: allNotes.Array.data[60].notes.Array.data[2].velocity_
      value: 0.8
      objectReference: {fileID: 0}
    - target: {fileID: 114000012052126696, guid: e8c2ddbd2999544428e9799ccc8951ab,
        type: 3}
      propertyPath: allNotes.Array.data[60].notes.Array.data[2].parent
      value: 
      objectReference: {fileID: 1794988318}
    - target: {fileID: 114000012052126696, guid: e8c2ddbd2999544428e9799ccc8951ab,
        type: 3}
      propertyPath: allNotes.Array.data[60].notes.Array.data[3].note_
      value: 60
      objectReference: {fileID: 0}
    - target: {fileID: 114000012052126696, guid: e8c2ddbd2999544428e9799ccc8951ab,
        type: 3}
      propertyPath: allNotes.Array.data[60].notes.Array.data[3].start_
      value: 12
      objectReference: {fileID: 0}
    - target: {fileID: 114000012052126696, guid: e8c2ddbd2999544428e9799ccc8951ab,
        type: 3}
      propertyPath: allNotes.Array.data[60].notes.Array.data[3].end_
      value: 14
      objectReference: {fileID: 0}
    - target: {fileID: 114000012052126696, guid: e8c2ddbd2999544428e9799ccc8951ab,
        type: 3}
      propertyPath: allNotes.Array.data[60].notes.Array.data[3].velocity_
      value: 0.8
      objectReference: {fileID: 0}
    - target: {fileID: 114000012052126696, guid: e8c2ddbd2999544428e9799ccc8951ab,
        type: 3}
      propertyPath: allNotes.Array.data[60].notes.Array.data[3].parent
      value: 
      objectReference: {fileID: 1794988318}
    - target: {fileID: 114000012052126696, guid: e8c2ddbd2999544428e9799ccc8951ab,
        type: 3}
      propertyPath: allNotes.Array.data[61].notes.Array.data[0].note_
      value: 61
      objectReference: {fileID: 0}
    - target: {fileID: 114000012052126696, guid: e8c2ddbd2999544428e9799ccc8951ab,
        type: 3}
      propertyPath: allNotes.Array.data[61].notes.Array.data[0].start_
      value: 12
      objectReference: {fileID: 0}
    - target: {fileID: 114000012052126696, guid: e8c2ddbd2999544428e9799ccc8951ab,
        type: 3}
      propertyPath: allNotes.Array.data[61].notes.Array.data[0].end_
      value: 14
      objectReference: {fileID: 0}
    - target: {fileID: 114000012052126696, guid: e8c2ddbd2999544428e9799ccc8951ab,
        type: 3}
      propertyPath: allNotes.Array.data[61].notes.Array.data[0].velocity_
      value: 0.8
      objectReference: {fileID: 0}
    - target: {fileID: 114000012052126696, guid: e8c2ddbd2999544428e9799ccc8951ab,
        type: 3}
      propertyPath: allNotes.Array.data[61].notes.Array.data[0].parent
      value: 
      objectReference: {fileID: 1794988318}
    - target: {fileID: 114000012052126696, guid: e8c2ddbd2999544428e9799ccc8951ab,
        type: 3}
      propertyPath: beatEvent.m_PersistentCalls.m_Calls.Array.data[0].m_Mode
      value: 5
      objectReference: {fileID: 0}
    - target: {fileID: 114000012052126696, guid: e8c2ddbd2999544428e9799ccc8951ab,
        type: 3}
      propertyPath: beatEvent.m_PersistentCalls.m_Calls.Array.data[0].m_CallState
      value: 2
      objectReference: {fileID: 0}
    - target: {fileID: 114000012052126696, guid: e8c2ddbd2999544428e9799ccc8951ab,
        type: 3}
      propertyPath: beatEvent.m_PersistentCalls.m_Calls.Array.data[0].m_Target
      value: 
      objectReference: {fileID: 0}
    - target: {fileID: 114000012052126696, guid: e8c2ddbd2999544428e9799ccc8951ab,
        type: 3}
      propertyPath: beatEvent.m_PersistentCalls.m_Calls.Array.data[0].m_MethodName
      value: BroadcastMessage
      objectReference: {fileID: 0}
    - target: {fileID: 114000012052126696, guid: e8c2ddbd2999544428e9799ccc8951ab,
        type: 3}
      propertyPath: beatEvent.m_PersistentCalls.m_Calls.Array.data[0].m_Arguments.m_ObjectArgumentAssemblyTypeName
      value: UnityEngine.Object, UnityEngine
      objectReference: {fileID: 0}
    - target: {fileID: 114000012052126696, guid: e8c2ddbd2999544428e9799ccc8951ab,
        type: 3}
      propertyPath: noteOnEvent.m_PersistentCalls.m_Calls.Array.data[0].m_MethodName
      value: SetActive
      objectReference: {fileID: 0}
    - target: {fileID: 114000012052126696, guid: e8c2ddbd2999544428e9799ccc8951ab,
        type: 3}
      propertyPath: noteOnEvent.m_PersistentCalls.m_Calls.Array.data[0].m_Arguments.m_ObjectArgumentAssemblyTypeName
      value: UnityEngine.Object, UnityEngine
      objectReference: {fileID: 0}
    - target: {fileID: 114000012052126696, guid: e8c2ddbd2999544428e9799ccc8951ab,
        type: 3}
      propertyPath: beatEvent.m_PersistentCalls.m_Calls.Array.data[0].m_Arguments.m_StringArgument
      value: test
      objectReference: {fileID: 0}
    - target: {fileID: 1000013823764470, guid: e8c2ddbd2999544428e9799ccc8951ab, type: 3}
      propertyPath: m_Name
      value: _DrumKit01Sequencer
      objectReference: {fileID: 0}
    - target: {fileID: 1000013823764470, guid: e8c2ddbd2999544428e9799ccc8951ab, type: 3}
      propertyPath: m_IsActive
      value: 1
      objectReference: {fileID: 0}
    m_RemovedComponents: []
  m_SourcePrefab: {fileID: 100100000, guid: e8c2ddbd2999544428e9799ccc8951ab, type: 3}
--- !u!114 &1794988318 stripped
MonoBehaviour:
  m_CorrespondingSourceObject: {fileID: 114000012052126696, guid: e8c2ddbd2999544428e9799ccc8951ab,
    type: 3}
  m_PrefabInstance: {fileID: 1794988317}
  m_PrefabAsset: {fileID: 0}
  m_GameObject: {fileID: 0}
  m_Enabled: 1
  m_EditorHideFlags: 0
  m_Script: {fileID: 11500000, guid: 1f6faed88bb01468fb8fd49178ba50fa, type: 3}
  m_Name: 
  m_EditorClassIdentifier: 
--- !u!4 &1794988319 stripped
Transform:
  m_CorrespondingSourceObject: {fileID: 4000012309939166, guid: e8c2ddbd2999544428e9799ccc8951ab,
    type: 3}
  m_PrefabInstance: {fileID: 1794988317}
  m_PrefabAsset: {fileID: 0}
--- !u!1 &1902544396
GameObject:
  m_ObjectHideFlags: 0
  m_CorrespondingSourceObject: {fileID: 0}
  m_PrefabInstance: {fileID: 0}
  m_PrefabAsset: {fileID: 0}
  serializedVersion: 6
  m_Component:
  - component: {fileID: 1902544399}
  - component: {fileID: 1902544398}
  - component: {fileID: 1902544397}
  m_Layer: 0
  m_Name: Main Camera
  m_TagString: MainCamera
  m_Icon: {fileID: 0}
  m_NavMeshLayer: 0
  m_StaticEditorFlags: 0
  m_IsActive: 1
--- !u!81 &1902544397
AudioListener:
  m_ObjectHideFlags: 0
  m_CorrespondingSourceObject: {fileID: 0}
  m_PrefabInstance: {fileID: 0}
  m_PrefabAsset: {fileID: 0}
  m_GameObject: {fileID: 1902544396}
  m_Enabled: 1
--- !u!20 &1902544398
Camera:
  m_ObjectHideFlags: 0
  m_CorrespondingSourceObject: {fileID: 0}
  m_PrefabInstance: {fileID: 0}
  m_PrefabAsset: {fileID: 0}
  m_GameObject: {fileID: 1902544396}
  m_Enabled: 1
  serializedVersion: 2
  m_ClearFlags: 2
  m_BackGroundColor: {r: 0.8254717, g: 0.9854654, b: 1, a: 0}
  m_projectionMatrixMode: 1
  m_GateFitMode: 2
  m_FOVAxisMode: 0
  m_SensorSize: {x: 36, y: 24}
  m_LensShift: {x: 0, y: 0}
  m_FocalLength: 50
  m_NormalizedViewPortRect:
    serializedVersion: 2
    x: 0
    y: 0
    width: 1
    height: 1
  near clip plane: 0.3
  far clip plane: 1000
  field of view: 60
  orthographic: 0
  orthographic size: 5
  m_Depth: -1
  m_CullingMask:
    serializedVersion: 2
    m_Bits: 4294967295
  m_RenderingPath: -1
  m_TargetTexture: {fileID: 0}
  m_TargetDisplay: 0
  m_TargetEye: 3
  m_HDR: 1
  m_AllowMSAA: 1
  m_AllowDynamicResolution: 0
  m_ForceIntoRT: 0
  m_OcclusionCulling: 1
  m_StereoConvergence: 10
  m_StereoSeparation: 0.022
--- !u!4 &1902544399
Transform:
  m_ObjectHideFlags: 0
  m_CorrespondingSourceObject: {fileID: 0}
  m_PrefabInstance: {fileID: 0}
  m_PrefabAsset: {fileID: 0}
  m_GameObject: {fileID: 1902544396}
  m_LocalRotation: {x: 0, y: 0, z: 0, w: 1}
  m_LocalPosition: {x: 7.5, y: -1, z: -9}
  m_LocalScale: {x: 1, y: 1, z: 1}
  m_Children: []
  m_Father: {fileID: 0}
  m_RootOrder: 0
  m_LocalEulerAnglesHint: {x: 0, y: 0, z: 0}
