%YAML 1.1
%TAG !u! tag:unity3d.com,2011:
--- !u!114 &11400000
MonoBehaviour:
  m_ObjectHideFlags: 0
  m_CorrespondingSourceObject: {fileID: 0}
  m_PrefabInstance: {fileID: 0}
  m_PrefabAsset: {fileID: 0}
  m_GameObject: {fileID: 0}
  m_Enabled: 1
  m_EditorHideFlags: 0
  m_Script: {fileID: 11500000, guid: 87b77492d79f34bf982aedcb6ba6aef3, type: 3}
  m_Name: P1_sq3
  m_EditorClassIdentifier: 
  loadedScale: {fileID: 11400000, guid: e91226276b87941d9af8e92384119ad4, type: 2}
  scaleIndexWrapped: 2
  intervalInit: 2
  octaveInit: 6
  midiValue: 76
  selectedInterval: 4
  trueCount: 5002
  nudgeRandom: 0
